Travel    Anti-rise 
0         0.367     
1         0.367     
2         0.368     
3         0.368     
4         0.368     
5         0.369     
6         0.369     
7         0.369     
8         0.370     
9         0.370     
10        0.370     
11        0.371     
12        0.371     
13        0.372     
14        0.372     
15        0.373     
16        0.373     
17        0.373     
18        0.374     
19        0.374     
20        0.375     
21        0.375     
22        0.376     
23        0.376     
24        0.377     
25        0.377     
26        0.378     
27        0.378     
28        0.379     
29        0.379     
30        0.380     
31        0.380     
32        0.381     
33        0.381     
34        0.382     
35        0.382     
36        0.383     
37        0.383     
38        0.384     
39        0.384     
40        0.385     
41        0.385     
42        0.386     
43        0.386     
44        0.387     
45        0.388     
46        0.388     
47        0.389     
48        0.389     
49        0.390     
50        0.390     
51        0.391     
52        0.391     
53        0.392     
54        0.392     
55        0.393     
56        0.394     
57        0.394     
58        0.395     
59        0.395     
60        0.396     
61        0.396     
62        0.397     
63        0.397     
64        0.398     
65        0.399     
66        0.399     
67        0.400     
68        0.400     
69        0.401     
70        0.401     
71        0.402     
72        0.402     
73        0.403     
74        0.404     
75        0.404     
76        0.405     
77        0.405     
78        0.406     
79        0.406     
80        0.407     
81        0.407     
82        0.408     
83        0.409     
84        0.409     
85        0.410     
86        0.410     
87        0.411     
88        0.411     
89        0.412     
90        0.413     
91        0.413     
92        0.414     
93        0.414     
94        0.415     
95        0.415     
96        0.416     
97        0.416     
98        0.417     
99        0.418     
100       0.418     
101       0.419     
102       0.419     
103       0.420     
104       0.420     
105       0.421     
106       0.422     
107       0.422     
108       0.423     
109       0.423     
110       0.424     
111       0.424     
112       0.425     
113       0.426     
114       0.426     
115       0.427     
116       0.427     
117       0.428     
118       0.428     
119       0.429     
120       0.430     
121       0.430     
122       0.431     
123       0.431     
124       0.432     
125       0.433     
126       0.433     
127       0.434     
128       0.434     
129       0.435     
130       0.436     
131       0.436     
132       0.437     
133       0.437     
134       0.438     
135       0.438     
136       0.439     
137       0.440     
138       0.440     
139       0.441     
140       0.442     
141       0.442     
142       0.443     
143       0.443     
144       0.444     
145       0.445     
146       0.445     
147       0.446     
148       0.446     
149       0.447     
150       0.448     
151       0.448     
152       0.449     
153       0.449     
154       0.450     
155       0.451     
156       0.451     
157       0.452     
158       0.453     
159       0.453     
160       0.454     
161       0.455     
162       0.455     
163       0.456     
164       0.456     
165       0.457     
166       0.458     
167       0.458     
168       0.459     
169       0.460     
170       0.460     
171       0.461     
172       0.462     
173       0.462     
174       0.463     
