Travel    Anti-rise 
0         0.532     
1         0.532     
2         0.531     
3         0.530     
4         0.529     
5         0.528     
6         0.528     
7         0.527     
8         0.526     
9         0.525     
10        0.525     
11        0.524     
12        0.523     
13        0.523     
14        0.522     
15        0.522     
16        0.521     
17        0.520     
18        0.520     
19        0.519     
20        0.519     
21        0.518     
22        0.518     
23        0.517     
24        0.517     
25        0.516     
26        0.516     
27        0.515     
28        0.515     
29        0.514     
30        0.514     
31        0.513     
32        0.513     
33        0.513     
34        0.512     
35        0.512     
36        0.511     
37        0.511     
38        0.511     
39        0.510     
40        0.510     
41        0.510     
42        0.509     
43        0.509     
44        0.509     
45        0.508     
46        0.508     
47        0.508     
48        0.508     
49        0.507     
50        0.507     
51        0.507     
52        0.507     
53        0.506     
54        0.506     
55        0.506     
56        0.506     
57        0.505     
58        0.505     
59        0.505     
60        0.505     
61        0.505     
62        0.504     
63        0.504     
64        0.504     
65        0.504     
66        0.504     
67        0.503     
68        0.503     
69        0.503     
70        0.503     
71        0.503     
72        0.503     
73        0.503     
74        0.502     
75        0.502     
76        0.502     
77        0.502     
78        0.502     
79        0.502     
80        0.502     
81        0.502     
82        0.502     
83        0.502     
84        0.501     
85        0.501     
86        0.501     
87        0.501     
88        0.501     
89        0.501     
90        0.501     
91        0.501     
92        0.501     
93        0.501     
94        0.501     
95        0.501     
96        0.501     
97        0.501     
98        0.501     
99        0.501     
100       0.501     
101       0.501     
102       0.501     
103       0.501     
104       0.501     
105       0.501     
106       0.501     
107       0.501     
108       0.501     
109       0.501     
110       0.501     
111       0.501     
112       0.501     
113       0.501     
114       0.501     
115       0.501     
116       0.501     
117       0.501     
118       0.501     
119       0.501     
120       0.501     
121       0.501     
122       0.501     
123       0.502     
124       0.502     
125       0.502     
126       0.502     
127       0.502     
128       0.502     
129       0.502     
130       0.502     
131       0.502     
132       0.502     
133       0.503     
134       0.503     
135       0.503     
136       0.503     
137       0.503     
138       0.503     
139       0.503     
140       0.503     
141       0.504     
142       0.504     
143       0.504     
144       0.504     
145       0.504     
146       0.504     
147       0.505     
148       0.505     
149       0.505     
150       0.505     
151       0.505     
152       0.505     
153       0.506     
154       0.506     
155       0.506     
156       0.506     
157       0.506     
158       0.507     
159       0.507     
160       0.507     
161       0.507     
162       0.508     
163       0.508     
164       0.508     
165       0.508     
166       0.508     
167       0.509     
168       0.509     
169       0.509     
170       0.509     
171       0.510     
172       0.510     
173       0.510     
174       0.510     
